1 10 20
100 200 125
201 210 89
900 1000 174
999999 1 525
323684 739475 509
105300 106000 310
595000 350000 470
800000 208402 509
324323 930494 525
294493 29384 443
490409 345984 449
12000 500 268
10 1 20
34239 393940 443
982888 982888 259
345873 927493 525
893247 484875 525
434 29382 308
239487 999999 525
636000 638000 354
230 384948 443
93848 1 351
494843 550000 470
3494 100001 351
10500 113001 354
24343 430304 449
5214 685124 509
842657 948594 507
65165 1 340
519197 600000 452
344 103442 351
666666 777777 504
293849 293849 66
1111 20394 279
934 503940 449
293847 900000 525
989999 999999 440
230000 300000 443
20 100 119
1001 601000 470
983247 8384 525
839485 344 525
189516 83167 383
10 560000 470
61981 56498 335
861998 94 525
812542 12947 509
9999 200001 383
100001 100001 90
485748 1934 449
3939 3939 26
398503 410000 405
920 102938 351
540001 640002 509
94857 4395 351
16881 5684 276
80456 38156 351
412551 74581 449
8791 456654 449
1 100 119
2000 9000 262
1 10000 262
30494 3857 308
85948 747477 509
454444 555555 470
3847 99999 351
111111 6001 354
651546 878788 525
48398 111 324
348030 93485 443
852963 148752 525
19765 132 279
159 951 179
394849 1 443
8888 29484 308
87919 459465 449
91981 239 351
20497 4384 279
4957 48593 324
48740 47739 265
34984 284344 443
159415 195 383
203982 203982 112
939393 939393 83
384681 984 443
777888 888777 525
695423 156723 509
987497 45915 525
10101 103943 351
40752 3945 324
956033 198198 525
93785 684621 509
555551 78918 470
98198 45187 351
972122 599230 525
447615 254664 449
57948 2 340
1 999999 525
891981 12094 525
203958 77819 383
20497 256 279
94981 794000 509
24523 917351 525
