1 10 20
100 200 125
201 210 89
900 1000 174
243532 985480 525
80630 86838 320
165960 258574 443
296793 367921 441
14819 706479 509
54873 82274 351
16 920 179
166 500 144
999999 999999 259
46372 75930 340
1010 1100 169
1 2 2
10 1 20
26 15 24
687 999 179
972 375 179
5504 5847 236
27392 32985 285
1 5 8
99 100 26
2 1 2
5 1 8
10000 10001 180
12000 18000 279
67940 483943 449
420840 423804 418
435197 993993 525
497455 632610 509
232933 667074 509
190709 787866 509
50212 103413 351
270673 918134 525
187219 956208 525
12345 34567 311
48537 42948 314
111 1111 179
1 100000 351
100000 1 351
888 999 174
8392 331470 443
42179 142921 375
50832 492743 449
12375 43802 324
988 1000 112
4127 13084 268
124 408 144
3208 7439 262
2374 3470 217
373408 378484 423
746474 749707 393
92 103 119
70 115 119
42 132 122
153 167 112
424 500 142
145 176 125
57 200 125
47 54 113
63 76 116
88 98 119
11 110 119
65 139 122
54 172 125
174 175 81
24 104 119
146 153 117
111 113 70
146 199 125
3760 4323 202
8794 15323 276
4752 14351 276
3768 14142 276
9775 13213 268
8764 9123 247
4771 8552 262
9764 10000 242
6752 10242 260
2798 3432 217
2751 3000 217
779 779 60
2701 3455 217
6790 7534 257
3743 4352 202
6579 10604 260
6336 8583 257
758 1020 179
3126 3165 155
42 88 116
46 80 116
56 76 116
68 91 116
67 66 28
34 45 110
23 70 113
6 7 17
8 43 112
243 534 144
5345 6434 262
