95 36 116
32 547 144
220 224 115
50 20 112
40 222 125
483 430 129
298 536 144
489 222 144
32858 2 308
3 2894 209
38904 543 324
4582 477 238
3865 8887 262
3894 33 238
444833 40389 449
38279 32235 324
54789 2389 340
498 39 144
957 94 179
99 399 144
4 32 112
2 40 112
249 30 128
3085 33 217
53 49 25
10 29 112
34 72 113
85 49 116
39 378 144
4938 4999 179
997 991 112
875 493 179
39 5550 238
39587 378 324
4766 67754 340
7564 389 262
885 588 179
119 299 128
398 589 142
876 472 179
76 95 111
9895 782 262
2896 4 209
3 234 128
20 200 125
30 400 144
77 88 111
999 321 179
3847 3893 145
848 737 153
9580 8437 260
277 199 128
2894 573 209
553 889 179
886 6 179
4 5 6
4 4 3
489 332 142
48 573 144
384 373 108
32 44 110
6 10 20
9 88 116
55 1 113
384 95 144
57 930 179
95 663 145
389 28 144
329 74 144
4756 37822 324
385 4892 238
83856 3785 351
736 743 140
1 123 119
3894 3892 101
999 988 112
967 678 179
9943 7589 260
887 888 73
448 5555 238
574386 2 470
3749 4739 215
857 48743 324
33 22 112
473 584 142
8 9 20
57 84 116
76 3838 238
299 3489 217
74895 3298 340
833 7272 262
3838 3747 176
99378 7382 351
883 229 179
990 443 179
88 654 145
489 327 144
83904 2384 351
9483 2894 262
5996 3 238
2 2895 209
3 5 8
4 773 171
48 73 116
584 329 142
856 574 171
664 322 145
4 55 113
384 32 144
23 65 113
5 19 21
438 39 144
92 5 116
85 71 116
17 22 21
333 444 134
909 138 179
184 44 125
66 678 145
57849 3849 340
4847 8333 262
328 844 171
338 884 179
3263 784 217
8239 2984 262
2093 22 182
33 477 144
38 48 110
9992 234 262
7757 324 262
849 222 171
4843 48 238
64 46 113
34 45 110
494 392 142
239 394 144
3944 22 238
384 422 134
848 2324 183
54 33 113
33 99 119
77 8327 262
374 859 171
382 728 171
4839 4253 215
8762 24 262
859 3892 238
92 2894 209
3092 483 217
239 248 110
895 944 174
908 4390 238
4389 389 238
9034 55454 340
434434 3222 449
23284 34434 311
332 445 134
4356 4332 184
28905 4002 308
9 444 144
3980 548 238
398 9965 262
490 489 49
999 333 179
539 9054 262
