1 1 1
1 2 2
999999 999999 259
1 999999 525
999999 1 525
999999 999998 259
1031 36 179
7942 57 262
9982 44 262
4338 27 238
2564 26 209
2481 38 209
3993 38 238
1525 37 182
7164 33 262
2794 60 209
834 800 135
222 405 144
292 91 128
628 910 179
405 808 171
877 588 179
378 232 144
666 181 145
662 308 145
756 257 171
514 102 144
111 274 128
919 572 179
754 707 140
673 645 145
25 844749 525
42 289606 443
92 419124 449
37 897228 525
56 496669 449
46 55139 340
7 115777 354
96 542724 470
67 184159 383
50 282733 443
12 858485 525
14 710223 509
96 371104 443
59 281316 443
36 671117 509
1687 9008 262
1674 5725 238
5897 852 238
7562 9115 252
8065 2085 262
3158 5825 238
7241 471 262
419 6816 262
2725 7918 262
6935 9454 260
7121 550 262
7486 7713 208
1927 7642 262
7411 5852 262
9216 8238 247
2288 7447 262
2613 3471 217
479 5060 238
2336 6412 262
4804 7037 262
6507 9225 257
7288 2483 262
9182 8070 247
5259 8037 262
8490 7139 252
42980 8093 324
22373 56553 340
95512 51910 351
80469 51252 351
64398 21779 340
53682 52497 340
97655 65602 351
40771 32945 324
27174 83071 351
72714 71666 263
60412 69175 335
44365 15101 324
56637 46217 340
74058 97610 351
29281 56495 340
2886 66664 340
61388 62785 317
37404 3066 324
16838 29668 308
31196 32876 285
31559 12348 308
88904 48369 351
92689 62649 351
77931 89143 338
17087 84827 351
370857 873293 525
301903 141422 443
299511 734459 509
501557 400678 449
130046 962050 525
489665 884342 525
538087 317091 470
41734 672433 509
887864 767884 525
139318 352046 443
41367 878780 525
610244 74741 470
630148 901839 525
955447 338249 525
468346 667514 509
290313 761978 509
754534 863119 525
85292 210004 383
331816 808423 509
369925 973465 525
501726 74813 449
402114 576815 470
573945 467884 470
212001 766306 509
872346 298742 525
