1 10 20
100 200 125
201 210 89
900 1000 174
10 1 20
1 999999 525
999999 1 525
1 100000 351
100000 200000 383
500000 200000 449
800000 999999 525
999999 800000 525
379015 852758 525
262571 524443 470
789507 401650 509
110447 178312 383
237176 465233 449
682423 580292 509
962531 444104 525
680514 387164 509
412511 471346 444
450323 305571 449
504970 361143 449
139774 325686 443
230789 979979 525
860697 730882 525
923451 610169 525
527994 183878 470
354828 548096 470
718997 92181 509
532577 508530 470
3592 50838 324
397438 560673 470
667880 958037 525
502941 225512 449
114417 617751 470
216605 706279 509
731195 428543 509
156924 265231 443
480582 841678 525
442905 410546 418
588188 879465 525
837939 523134 525
975756 625777 525
352453 686464 509
841236 769780 525
313338 833295 509
481515 312534 449
889085 711132 525
874705 209849 525
517646 337273 470
662359 923906 525
158507 372430 443
574080 997300 525
466806 307584 449
905066 815109 525
628889 975558 525
62918 289610 443
464087 142553 449
672358 390452 509
319830 772207 509
969090 353734 525
447197 7992 449
595297 973596 525
729188 498415 509
246007 832234 509
504992 529225 470
574923 954873 525
225978 135912 386
998295 208613 525
589546 148601 470
78360 781272 509
219238 727469 509
466420 831494 509
104737 225811 386
428014 447322 400
261339 932812 525
516152 279798 470
654013 540342 509
21384 687747 509
471747 697670 509
960877 4715 525
686804 547477 509
462245 371582 449
276873 946782 525
600099 723807 509
19302 696243 509
500807 304614 449
730101 992876 525
334525 957483 525
559747 557276 315
344401 990868 525
894461 957656 507
832649 877269 525
878394 326702 525
436062 345674 449
150159 717944 509
615983 660393 509
723590 703193 504
531918 414889 470
161179 706865 509
502005 538786 470
90362 923051 525
945125 834091 525
285845 59231 443
91528 816175 509
216714 477571 449
297164 59160 443
936677 140738 525
106807 658822 509
450872 176734 449
561907 587427 434
